%YAML 1.1
%TAG !u! tag:unity3d.com,2011:
--- !u!74 &7400000
AnimationClip:
  m_ObjectHideFlags: 0
  m_PrefabParentObject: {fileID: 0}
  m_PrefabInternal: {fileID: 0}
  m_Name: Red4
  serializedVersion: 6
  m_Legacy: 0
  m_Compressed: 0
  m_UseHighQualityCurve: 1
  m_RotationCurves: []
  m_CompressedRotationCurves: []
  m_EulerCurves: []
  m_PositionCurves:
  - curve:
      serializedVersion: 2
      m_Curve:
      - serializedVersion: 2
        time: 0
        value: {x: 2.38, y: 5, z: -4.69}
        inSlope: {x: 0, y: 0, z: 0}
        outSlope: {x: 0, y: 0, z: 0}
        tangentMode: 0
      - serializedVersion: 2
        time: 0.16666667
        value: {x: 2.77, y: 5, z: -4.32}
        inSlope: {x: 3.3611097, y: 0, z: 1.7000006}
        outSlope: {x: 3.3611097, y: 0, z: 1.7000006}
        tangentMode: 0
      - serializedVersion: 2
        time: 0.3
        value: {x: 3.388333, y: 5, z: -4.18}
        inSlope: {x: 3.7875001, y: 0, z: 0}
        outSlope: {x: 3.7875001, y: 0, z: 0}
        tangentMode: 0
      - serializedVersion: 2
        time: 0.43333334
        value: {x: 3.78, y: 5, z: -4.32}
        inSlope: {x: 3.5421069, y: 0, z: -1.7684253}
        outSlope: {x: 3.5421069, y: 0, z: -1.7684253}
        tangentMode: 0
      - serializedVersion: 2
        time: 0.6166667
        value: {x: 4.51, y: 5, z: -4.75}
        inSlope: {x: 4.936364, y: 0, z: -1.4181831}
        outSlope: {x: 4.936364, y: 0, z: -1.4181831}
        tangentMode: 0
      - serializedVersion: 2
        time: 0.8
        value: {x: 5.59, y: 5, z: -4.88}
        inSlope: {x: 5.114286, y: 0, z: 0}
        outSlope: {x: 5.114286, y: 0, z: 0}
        tangentMode: 0
      - serializedVersion: 2
        time: 0.96666664
        value: {x: 6.3, y: 5, z: -4.5}
        inSlope: {x: 0, y: 0, z: 3.7714295}
        outSlope: {x: 0, y: 0, z: 3.7714295}
        tangentMode: 0
      - serializedVersion: 2
        time: 1.15
        value: {x: 5.71, y: 5, z: -3.56}
        inSlope: {x: -3.8499997, y: 0, z: 4.4999995}
        outSlope: {x: -3.8499997, y: 0, z: 4.4999995}
        tangentMode: 0
      - serializedVersion: 2
        time: 1.3666667
        value: {x: 4.76, y: 5, z: -2.7}
        inSlope: {x: -0.13333642, y: 0, z: 4.566665}
        outSlope: {x: -0.13333642, y: 0, z: 4.566665}
        tangentMode: 0
      - serializedVersion: 2
        time: 1.45
        value: {x: 4.75, y: 5, z: -2.19}
        inSlope: {x: 0, y: 0, z: 2.9666674}
        outSlope: {x: 0, y: 0, z: 2.9666674}
        tangentMode: 0
      - serializedVersion: 2
        time: 1.6666666
        value: {x: 5.54, y: 5, z: -1.81}
        inSlope: {x: 2.8434787, y: 0, z: 0}
        outSlope: {x: 2.8434787, y: 0, z: 0}
        tangentMode: 0
      - serializedVersion: 2
        time: 1.8333334
        value: {x: 5.84, y: 5, z: -2.39}
        inSlope: {x: 0, y: 0, z: -3.428571}
        outSlope: {x: 0, y: 0, z: -3.428571}
        tangentMode: 0
      - serializedVersion: 2
        time: 1.9
        value: {x: 5.56, y: 5, z: -2.61}
        inSlope: {x: -2.5800025, y: 0, z: 0}
        outSlope: {x: -2.5800025, y: 0, z: 0}
        tangentMode: 0
      - serializedVersion: 2
        time: 2
        value: {x: 5.41, y: 5, z: -2.39}
        inSlope: {x: 0, y: 0, z: 0}
        outSlope: {x: 0, y: 0, z: 0}
        tangentMode: 0
      m_PreInfinity: 2
      m_PostInfinity: 2
      m_RotationOrder: 4
    path: 
  m_ScaleCurves: []
  m_FloatCurves: []
  m_PPtrCurves: []
  m_SampleRate: 60
  m_WrapMode: 0
  m_Bounds:
    m_Center: {x: 0, y: 0, z: 0}
    m_Extent: {x: 0, y: 0, z: 0}
  m_ClipBindingConstant:
    genericBindings:
    - serializedVersion: 2
      path: 0
      attribute: 1
      script: {fileID: 0}
      typeID: 4
      customType: 0
      isPPtrCurve: 0
    pptrCurveMapping: []
  m_AnimationClipSettings:
    serializedVersion: 2
    m_AdditiveReferencePoseClip: {fileID: 0}
    m_AdditiveReferencePoseTime: 0
    m_StartTime: 0
    m_StopTime: 2
    m_OrientationOffsetY: 0
    m_Level: 0
    m_CycleOffset: 0
    m_HasAdditiveReferencePose: 0
    m_LoopTime: 1
    m_LoopBlend: 0
    m_LoopBlendOrientation: 0
    m_LoopBlendPositionY: 0
    m_LoopBlendPositionXZ: 0
    m_KeepOriginalOrientation: 0
    m_KeepOriginalPositionY: 1
    m_KeepOriginalPositionXZ: 0
    m_HeightFromFeet: 0
    m_Mirror: 0
  m_EditorCurves:
  - curve:
      serializedVersion: 2
      m_Curve:
      - serializedVersion: 2
        time: 0
        value: 2.38
        inSlope: 0
        outSlope: 0
        tangentMode: 136
      - serializedVersion: 2
        time: 0.16666667
        value: 2.77
        inSlope: 3.3611097
        outSlope: 3.3611097
        tangentMode: 136
      - serializedVersion: 2
        time: 0.3
        value: 3.388333
        inSlope: 3.7875001
        outSlope: 3.7875001
        tangentMode: 136
      - serializedVersion: 2
        time: 0.43333334
        value: 3.78
        inSlope: 3.5421069
        outSlope: 3.5421069
        tangentMode: 136
      - serializedVersion: 2
        time: 0.6166667
        value: 4.51
        inSlope: 4.936364
        outSlope: 4.936364
        tangentMode: 136
      - serializedVersion: 2
        time: 0.8
        value: 5.59
        inSlope: 5.114286
        outSlope: 5.114286
        tangentMode: 136
      - serializedVersion: 2
        time: 0.96666664
        value: 6.3
        inSlope: 0
        outSlope: 0
        tangentMode: 136
      - serializedVersion: 2
        time: 1.15
        value: 5.71
        inSlope: -3.8499997
        outSlope: -3.8499997
        tangentMode: 136
      - serializedVersion: 2
        time: 1.3666667
        value: 4.76
        inSlope: -0.13333642
        outSlope: -0.13333642
        tangentMode: 136
      - serializedVersion: 2
        time: 1.45
        value: 4.75
        inSlope: 0
        outSlope: 0
        tangentMode: 136
      - serializedVersion: 2
        time: 1.6666666
        value: 5.54
        inSlope: 2.8434787
        outSlope: 2.8434787
        tangentMode: 136
      - serializedVersion: 2
        time: 1.8333334
        value: 5.84
        inSlope: 0
        outSlope: 0
        tangentMode: 136
      - serializedVersion: 2
        time: 1.9
        value: 5.56
        inSlope: -2.5800025
        outSlope: -2.5800025
        tangentMode: 136
      - serializedVersion: 2
        time: 2
        value: 5.41
        inSlope: 0
        outSlope: 0
        tangentMode: 136
      m_PreInfinity: 2
      m_PostInfinity: 2
      m_RotationOrder: 4
    attribute: m_LocalPosition.x
    path: 
    classID: 4
    script: {fileID: 0}
  - curve:
      serializedVersion: 2
      m_Curve:
      - serializedVersion: 2
        time: 0
        value: 5
        inSlope: 0
        outSlope: 0
        tangentMode: 136
      - serializedVersion: 2
        time: 0.16666667
        value: 5
        inSlope: 0
        outSlope: 0
        tangentMode: 136
      - serializedVersion: 2
        time: 0.3
        value: 5
        inSlope: 0
        outSlope: 0
        tangentMode: 136
      - serializedVersion: 2
        time: 0.43333334
        value: 5
        inSlope: 0
        outSlope: 0
        tangentMode: 136
      - serializedVersion: 2
        time: 0.6166667
        value: 5
        inSlope: 0
        outSlope: 0
        tangentMode: 136
      - serializedVersion: 2
        time: 0.8
        value: 5
        inSlope: 0
        outSlope: 0
        tangentMode: 136
      - serializedVersion: 2
        time: 0.96666664
        value: 5
        inSlope: 0
        outSlope: 0
        tangentMode: 136
      - serializedVersion: 2
        time: 1.15
        value: 5
        inSlope: 0
        outSlope: 0
        tangentMode: 136
      - serializedVersion: 2
        time: 1.3666667
        value: 5
        inSlope: 0
        outSlope: 0
        tangentMode: 136
      - serializedVersion: 2
        time: 1.45
        value: 5
        inSlope: 0
        outSlope: 0
        tangentMode: 136
      - serializedVersion: 2
        time: 1.6666666
        value: 5
        inSlope: 0
        outSlope: 0
        tangentMode: 136
      - serializedVersion: 2
        time: 1.8333334
        value: 5
        inSlope: 0
        outSlope: 0
        tangentMode: 136
      - serializedVersion: 2
        time: 1.9
        value: 5
        inSlope: 0
        outSlope: 0
        tangentMode: 136
      - serializedVersion: 2
        time: 2
        value: 5
        inSlope: 0
        outSlope: 0
        tangentMode: 136
      m_PreInfinity: 2
      m_PostInfinity: 2
      m_RotationOrder: 4
    attribute: m_LocalPosition.y
    path: 
    classID: 4
    script: {fileID: 0}
  - curve:
      serializedVersion: 2
      m_Curve:
      - serializedVersion: 2
        time: 0
        value: -4.69
        inSlope: 0
        outSlope: 0
        tangentMode: 136
      - serializedVersion: 2
        time: 0.16666667
        value: -4.32
        inSlope: 1.7000006
        outSlope: 1.7000006
        tangentMode: 136
      - serializedVersion: 2
        time: 0.3
        value: -4.18
        inSlope: 0
        outSlope: 0
        tangentMode: 136
      - serializedVersion: 2
        time: 0.43333334
        value: -4.32
        inSlope: -1.7684253
        outSlope: -1.7684253
        tangentMode: 136
      - serializedVersion: 2
        time: 0.6166667
        value: -4.75
        inSlope: -1.4181831
        outSlope: -1.4181831
        tangentMode: 136
      - serializedVersion: 2
        time: 0.8
        value: -4.88
        inSlope: 0
        outSlope: 0
        tangentMode: 136
      - serializedVersion: 2
        time: 0.96666664
        value: -4.5
        inSlope: 3.7714295
        outSlope: 3.7714295
        tangentMode: 136
      - serializedVersion: 2
        time: 1.15
        value: -3.56
        inSlope: 4.4999995
        outSlope: 4.4999995
        tangentMode: 136
      - serializedVersion: 2
        time: 1.3666667
        value: -2.7
        inSlope: 4.566665
        outSlope: 4.566665
        tangentMode: 136
      - serializedVersion: 2
        time: 1.45
        value: -2.19
        inSlope: 2.9666674
        outSlope: 2.9666674
        tangentMode: 136
      - serializedVersion: 2
        time: 1.6666666
        value: -1.81
        inSlope: 0
        outSlope: 0
        tangentMode: 136
      - serializedVersion: 2
        time: 1.8333334
        value: -2.39
        inSlope: -3.428571
        outSlope: -3.428571
        tangentMode: 136
      - serializedVersion: 2
        time: 1.9
        value: -2.61
        inSlope: 0
        outSlope: 0
        tangentMode: 136
      - serializedVersion: 2
        time: 2
        value: -2.39
        inSlope: 0
        outSlope: 0
        tangentMode: 136
      m_PreInfinity: 2
      m_PostInfinity: 2
      m_RotationOrder: 4
    attribute: m_LocalPosition.z
    path: 
    classID: 4
    script: {fileID: 0}
  m_EulerEditorCurves: []
  m_HasGenericRootTransform: 1
  m_HasMotionFloatCurves: 0
  m_GenerateMotionCurves: 0
  m_Events: []
